TP_sysc_filter/waves.vcd
$date
     Feb 16, 2025       16:05:25
$end

$version
 SystemC 2.3.3-Accellera --- Jun  7 2022 13:10:00
$end

$timescale
     1 ns
$end

$scope module SystemC $end
$var wire    1  aaaaa  clk       $end
$var wire    1  aaaab  rst       $end
$var wire    1  aaaac  audio_clk       $end
$var wire   24  aaaad  data_in [23:0]  $end
$var wire    1  aaaae  valid_in       $end
$var wire   24  aaaaf  data_out [23:0]  $end
$var wire    1  aaaag  valid_out       $end
$upscope $end
$enddefinitions  $end

$comment
All initial values are dumped below at time 0 sec = 0 timescale units.
$end

$dumpvars
0aaaaa
0aaaab
0aaaac
b111111101000000 aaaad
0aaaae
b111111101000000 aaaaf
0aaaag
$end

#100
1aaaaa

#200
0aaaaa

#300
1aaaaa

#400
0aaaaa

#500
1aaaaa

#600
0aaaaa

#700
1aaaaa

#800
0aaaaa

#900
1aaaaa

#1000
0aaaaa

#1100
1aaaaa

#1200
0aaaaa

#1300
1aaaaa

#1400
0aaaaa

#1500
1aaaaa

#1600
0aaaaa

#1700
1aaaaa

#1800
0aaaaa

#1900
1aaaaa

#2000
0aaaaa

#2100
1aaaaa

#2200
0aaaaa

#2300
1aaaaa

#2400
0aaaaa

#2500
1aaaaa

#2600
0aaaaa

#2700
1aaaaa

#2800
0aaaaa

#2900
1aaaaa

#3000
0aaaaa

#3100
1aaaaa

#3200
0aaaaa

#3300
1aaaaa

#3400
0aaaaa

#3500
1aaaaa

#3600
0aaaaa

#3700
1aaaaa

#3800
0aaaaa

#3900
1aaaaa

#4000
0aaaaa

#4100
1aaaaa

#4200
0aaaaa

#4300
1aaaaa

#4400
0aaaaa

#4500
1aaaaa

#4600
0aaaaa

#4700
1aaaaa

#4800
0aaaaa

#4900
1aaaaa

#5000
0aaaaa

#5100
1aaaaa

#5200
0aaaaa

#5208
1aaaac
b0 aaaad
1aaaae

#5300
1aaaaa
b0 aaaaf
1aaaag

#5400
0aaaaa

#5500
1aaaaa

#5600
0aaaaa

#5700
1aaaaa

#5800
0aaaaa

#5900
1aaaaa

#6000
0aaaaa

#6100
1aaaaa

#6200
0aaaaa

#6300
1aaaaa

#6400
0aaaaa

#6500
1aaaaa

#6600
0aaaaa

#6700
1aaaaa

#6800
0aaaaa

#6900
1aaaaa

#7000
0aaaaa

#7100
1aaaaa

#7200
0aaaaa

#7300
1aaaaa

#7400
0aaaaa

#7500
1aaaaa

#7600
0aaaaa

#7700
1aaaaa

#7800
0aaaaa

#7900
1aaaaa

#8000
0aaaaa

#8100
1aaaaa

#8200
0aaaaa

#8300
1aaaaa

#8400
0aaaaa

#8500
1aaaaa

#8600
0aaaaa

#8700
1aaaaa

#8800
0aaaaa

#8900
1aaaaa

#9000
0aaaaa

#9100
1aaaaa

#9200
0aaaaa

#9300
1aaaaa

#9400
0aaaaa

#9500
1aaaaa

#9600
0aaaaa

#9700
1aaaaa

#9800
0aaaaa

#9900
1aaaaa

#10000
0aaaaa

#10100
1aaaaa

#10200
0aaaaa

#10300
1aaaaa

#10400
0aaaaa

#10416
0aaaac

#10500
1aaaaa

#10600
0aaaaa

#10700
1aaaaa

#10800
0aaaaa

#10900
1aaaaa

#11000
0aaaaa

#11100
1aaaaa

#11200
0aaaaa

#11300
1aaaaa

#11400
0aaaaa

#11500
1aaaaa

#11600
0aaaaa

#11700
1aaaaa

#11800
0aaaaa

#11900
1aaaaa

#12000
0aaaaa

#12100
1aaaaa

#12200
0aaaaa

#12300
1aaaaa

#12400
0aaaaa

#12500
1aaaaa

#12600
0aaaaa

#12700
1aaaaa

#12800
0aaaaa

#12900
1aaaaa

#13000
0aaaaa

#13100
1aaaaa

#13200
0aaaaa

#13300
1aaaaa

#13400
0aaaaa

#13500
1aaaaa

#13600
0aaaaa

#13700
1aaaaa

#13800
0aaaaa

#13900
1aaaaa

#14000
0aaaaa

#14100
1aaaaa

#14200
0aaaaa

#14300
1aaaaa

#14400
0aaaaa

#14500
1aaaaa

#14600
0aaaaa

#14700
1aaaaa

#14800
0aaaaa

#14900
1aaaaa

#15000
0aaaaa

#15100
1aaaaa

#15200
0aaaaa

#15300
1aaaaa

#15400
0aaaaa

#15500
1aaaaa

#15600
0aaaaa

#15624
1aaaac
0aaaae

#15700
1aaaaa
0aaaag

#15800
0aaaaa

#15900
1aaaaa

#16000
0aaaaa

#16100
1aaaaa

#16200
0aaaaa

#16300
1aaaaa

#16400
0aaaaa

#16500
1aaaaa

#16600
0aaaaa

#16700
1aaaaa

#16800
0aaaaa

#16900
1aaaaa

#17000
0aaaaa

#17100
1aaaaa

#17200
0aaaaa

#17300
1aaaaa

#17400
0aaaaa

#17500
1aaaaa

#17600
0aaaaa

#17700
1aaaaa

#17800
0aaaaa

#17900
1aaaaa

#18000
0aaaaa

#18100
1aaaaa

#18200
0aaaaa

#18300
1aaaaa

#18400
0aaaaa

#18500
1aaaaa

#18600
0aaaaa

#18700
1aaaaa

#18800
0aaaaa

#18900
1aaaaa

#19000
0aaaaa

#19100
1aaaaa

#19200
0aaaaa

#19300
1aaaaa

#19400
0aaaaa

#19500
1aaaaa

#19600
0aaaaa

#19700
1aaaaa

#19800
0aaaaa

#19900
1aaaaa

#20000
0aaaaa

#20100
1aaaaa

#20200
0aaaaa

#20300
1aaaaa

#20400
0aaaaa

#20500
1aaaaa

#20600
0aaaaa

#20700
1aaaaa

#20800
0aaaaa

#20832
0aaaac

#20900
1aaaaa

#21000
0aaaaa

#21100
1aaaaa

#21200
0aaaaa

#21300
1aaaaa

#21400
0aaaaa

#21500
1aaaaa

#21600
0aaaaa

#21700
1aaaaa

#21800
0aaaaa

#21900
1aaaaa

#22000
0aaaaa

#22100
1aaaaa

#22200
0aaaaa

#22300
1aaaaa

#22400
0aaaaa

#22500
1aaaaa

#22600
0aaaaa

#22700
1aaaaa

#22800
0aaaaa

#22900
1aaaaa

#23000
0aaaaa

#23100
1aaaaa

#23200
0aaaaa

#23300
1aaaaa

#23400
0aaaaa

#23500
1aaaaa

#23600
0aaaaa

#23700
1aaaaa

#23800
0aaaaa

#23900
1aaaaa

#24000
0aaaaa

#24100
1aaaaa

#24200
0aaaaa

#24300
1aaaaa

#24400
0aaaaa

#24500
1aaaaa

#24600
0aaaaa

#24700
1aaaaa

#24800
0aaaaa

#24900
1aaaaa

#25000
0aaaaa

#25100
1aaaaa

#25200
0aaaaa

#25300
1aaaaa

#25400
0aaaaa

#25500
1aaaaa

#25600
0aaaaa

#25700
1aaaaa

#25800
0aaaaa

#25900
1aaaaa

#26000
0aaaaa

#26040
1aaaac
b1 aaaad
1aaaae

#26100
1aaaaa
1aaaag

#26200
0aaaaa

#26300
1aaaaa

#26400
0aaaaa

#26500
1aaaaa

#26600
0aaaaa

#26700
1aaaaa

#26800
0aaaaa

#26900
1aaaaa

#27000
0aaaaa

#27100
1aaaaa

#27200
0aaaaa

#27300
1aaaaa

#27400
0aaaaa

#27500
1aaaaa

#27600
0aaaaa

#27700
1aaaaa

#27800
0aaaaa

#27900
1aaaaa

#28000
0aaaaa

#28100
1aaaaa

#28200
0aaaaa

#28300
1aaaaa

#28400
0aaaaa

#28500
1aaaaa

#28600
0aaaaa

#28700
1aaaaa

#28800
0aaaaa

#28900
1aaaaa

#29000
0aaaaa

#29100
1aaaaa

#29200
0aaaaa

#29300
1aaaaa

#29400
0aaaaa

#29500
1aaaaa

#29600
0aaaaa

#29700
1aaaaa

#29800
0aaaaa

#29900
1aaaaa

#30000
0aaaaa

#30100
1aaaaa

#30200
0aaaaa

#30300
1aaaaa

#30400
0aaaaa

#30500
1aaaaa

#30600
0aaaaa

#30700
1aaaaa

#30800
0aaaaa

#30900
1aaaaa

#31000
0aaaaa

#31100
1aaaaa

#31200
0aaaaa

#31248
0aaaac

#31300
1aaaaa

#31400
0aaaaa

#31500
1aaaaa

#31600
0aaaaa

#31700
1aaaaa

#31800
0aaaaa

#31900
1aaaaa

#32000
0aaaaa

#32100
1aaaaa

#32200
0aaaaa

#32300
1aaaaa

#32400
0aaaaa

#32500
1aaaaa

#32600
0aaaaa

#32700
1aaaaa

#32800
0aaaaa

#32900
1aaaaa

#33000
0aaaaa

#33100
1aaaaa

#33200
0aaaaa

#33300
1aaaaa

#33400
0aaaaa

#33500
1aaaaa

#33600
0aaaaa

#33700
1aaaaa

#33800
0aaaaa

#33900
1aaaaa

#34000
0aaaaa

#34100
1aaaaa

#34200
0aaaaa

#34300
1aaaaa

#34400
0aaaaa

#34500
1aaaaa

#34600
0aaaaa

#34700
1aaaaa

#34800
0aaaaa

#34900
1aaaaa

#35000
0aaaaa

#35100
1aaaaa

#35200
0aaaaa

#35300
1aaaaa

#35400
0aaaaa

#35500
1aaaaa

#35600
0aaaaa

#35700
1aaaaa

#35800
0aaaaa

#35900
1aaaaa

#36000
0aaaaa

#36100
1aaaaa

#36200
0aaaaa

#36300
1aaaaa

#36400
0aaaaa

#36456
1aaaac
0aaaae

#36500
1aaaaa
0aaaag

