Mini_projet_FFT/FFT_FIFO_FLOAT_STUDENT_BACA/trace.vcd
$date
     Mar 09, 2025       14:49:04
$end

$version
 SystemC 3.0.1-Accellera --- Feb  4 2025 19:09:07
$end

$timescale
     1 ns
$end

$scope module SystemC $end
$scope module top $end
$var wire   23  aaaaa  signal_4 [22:0]  $end
$var wire   23  aaaab  signal_5 [22:0]  $end
$var wire   23  aaaac  signal_6 [22:0]  $end
$var wire   23  aaaad  signal_7 [22:0]  $end
$upscope $end
$upscope $end
$enddefinitions  $end

$comment
All initial values are dumped below at time 0 sec = 0 timescale units.
$end

$dumpvars
b1111101101100000 aaaaa
b1111101101100000 aaaab
b0 aaaac
b0 aaaad
$end

#150
b1111101101100000000 aaaac
b1111101101100000000 aaaad

#170
b0 aaaac
b0 aaaad

#320
b100000 aaaaa
b100000 aaaab

#340
b0 aaaaa
b0 aaaab

#470
b100000 aaaac
b100000 aaaad

#640
b11100100000000 aaaab

#660
b111100000000 aaaaa
b1110101000000 aaaab

#680
b1110101000000 aaaaa
b111100000000 aaaab

#700
b111100000000 aaaaa
b0 aaaab

#720
b0 aaaaa
b11111111111000100000000 aaaab

#740
b11111111111000100000000 aaaaa
b11111111110001011000000 aaaab

#760
b11111111110001011000000 aaaaa
b11111111100011100000000 aaaab

#780
b11111111111000100000000 aaaaa
b11111111010000000000000 aaaab

#790
b0 aaaac
b11111111010000000000000 aaaad

#810
b1011001000111000 aaaac
b11111111100101001111000 aaaad

#830
b110000000000000 aaaac
b101010000000000 aaaad

#850
b10001000111000 aaaac
b111001100001000 aaaad

#870
b0 aaaac
b110000000000000 aaaad

#890
b11111111101110111001000 aaaac
b101000010001000 aaaad

#910
b11111111010000000000000 aaaac
b101010000000000 aaaad

#930
b11111110100110111001000 aaaac
b1001000111111000 aaaad

#960
b111101100000 aaaaa
b1110100000 aaaab

#980
b10001000000 aaaaa
b10001000000 aaaab

#1000
b11111111111110100100000 aaaaa
b101010100000 aaaab

#1020
b110000000 aaaaa
b1100111000000 aaaab

#1040
b10110100000 aaaaa
b10101000000000 aaaab

#1060
b0 aaaaa
b100101000100000 aaaab

#1080
b100001100000 aaaaa
b110011011100000 aaaab

#1100
b1000011000000 aaaaa
b11010011000000 aaaab

#1110
b11000100000000 aaaac
b10011110000000000 aaaad

#1130
b11111110111100001001110 aaaac
b11111111100111011110110 aaaad

#1150
b111101100000 aaaac
b11111111100101000100000 aaaad

#1170
b1010111111110 aaaac
b11111111111001101101010 aaaad

#1190
b10000000000 aaaac
b1001000000 aaaad

#1210
b11111111110001010110010 aaaac
b11111111111101011001010 aaaad

#1230
b111110100000 aaaac
b11111111010111000100000 aaaad

#1250
b1011011000000010 aaaac
b11111111010100101010110 aaaad

