Mini_projet_FFT/FFT_FIFO_FLOAT_STUDENT_BCA/trace.vcd
$date
     Feb 25, 2025       10:03:18
$end

$version
 SystemC 2.3.3-Accellera --- Jun  7 2022 13:10:00
$end

$timescale
     1 ns
$end

$scope module SystemC $end
$scope module top $end
$var real    1  aaaaa  source_fft_0       $end
$var real    1  aaaab  source_fft_1       $end
$var real    1  aaaac  source_fft_2       $end
$var real    1  aaaad  source_fft_3       $end
$var real    1  aaaae  source_fft_4       $end
$var real    1  aaaaf  source_fft_5       $end
$var real    1  aaaag  source_fft_6       $end
$var real    1  aaaah  source_fft_7       $end
$var real    1  aaaai  source_fft_8       $end
$var real    1  aaaaj  source_fft_9       $end
$var real    1  aaaak  source_fft_10       $end
$var real    1  aaaal  source_fft_11       $end
$var real    1  aaaam  source_fft_12       $end
$var real    1  aaaan  source_fft_13       $end
$var real    1  aaaao  source_fft_14       $end
$var real    1  aaaap  source_fft_15       $end
$var real    1  aaaaq  fft_sink_0       $end
$var real    1  aaaar  fft_sink_1       $end
$var real    1  aaaas  fft_sink_2       $end
$var real    1  aaaat  fft_sink_3       $end
$var real    1  aaaau  fft_sink_4       $end
$var real    1  aaaav  fft_sink_5       $end
$var real    1  aaaaw  fft_sink_6       $end
$var real    1  aaaax  fft_sink_7       $end
$var real    1  aaaay  fft_sink_8       $end
$var real    1  aaaaz  fft_sink_9       $end
$var real    1  aaaba  fft_sink_10       $end
$var real    1  aaabb  fft_sink_11       $end
$var real    1  aaabc  fft_sink_12       $end
$var real    1  aaabd  fft_sink_13       $end
$var real    1  aaabe  fft_sink_14       $end
$var real    1  aaabf  fft_sink_15       $end
$upscope $end
$upscope $end
$enddefinitions  $end

$comment
All initial values are dumped below at time 0 sec = 0 timescale units.
$end

$dumpvars
r2011 aaaaa
r0 aaaab
r6.594295324105558e+22 aaaac
r7.555081327053433e+31 aaaad
r3.559244355763391e-17 aaaae
r1.832023514993055e+25 aaaaf
r6.593495034451775e+22 aaaag
r7.555081327053433e+31 aaaah
r0 aaaai
r0 aaaaj
r0 aaaak
r0 aaaal
r0 aaaam
r0 aaaan
r0 aaaao
r0 aaaap
r0 aaaaq
r0 aaaar
r6.594295324105558e+22 aaaas
r7.555081327053433e+31 aaaat
r3.559244355763391e-17 aaaau
r1.832023514993055e+25 aaaav
r6.593495034451775e+22 aaaaw
r7.555081327053433e+31 aaaax
r0 aaaay
r0 aaaaz
r0 aaaba
r0 aaabb
r0 aaabc
r0 aaabd
r0 aaabe
r0 aaabf
$end

#10
r2011 aaaab

#20
r2011 aaaac

#30
r2011 aaaad

#40
r2011 aaaae

#50
r2011 aaaaf

#60
r2011 aaaag

#70
r2011 aaaah

#80
r2011 aaaai

#90
r2011 aaaaj

#100
r2011 aaaak

#110
r2011 aaaal

#120
r2011 aaaam

#130
r2011 aaaan

#140
r2011 aaaao

#150
r2011 aaaap

#160
r1 aaaaa

#170
r1 aaaab

#180
r0 aaaac

#190
r0 aaaad

#200
r0 aaaae

#210
r0 aaaaf

#220
r0 aaaag

#230
r0 aaaah

#240
r0 aaaai

#250
r0 aaaaj

#260
r0 aaaak

#270
r0 aaaal

#280
r0 aaaam

#290
r0 aaaan

#300
r0 aaaao

#310
r0 aaaap

#320
r16088 aaaaq

#330
r16088 aaaar

#340
r0 aaaas

#350
r0 aaaat

#360
r0 aaaau

#370
r0 aaaav

#380
r0 aaaaw

#390
r0 aaaax

#480
r0 aaaaa
r0 aaaaq

#490
r456 aaaab
r0 aaaar

#500
r120 aaaac

#510
r234 aaaad

#520
r234 aaaae

#530
r120 aaaaf

#540
r120 aaaag

#570
r-120 aaaaj

#580
r-120 aaaak

#590
r-234 aaaal

#600
r-234 aaaam

#610
r-456 aaaan

#620
r-120 aaaao

#630
r-768 aaaap

#640
r1 aaaaq

#650
r1 aaaar

#660
r1 aaaas

#670
r1 aaaat

#680
r1 aaaau

#690
r1 aaaav

#700
r1 aaaaw

#710
r1 aaaax

#720
r1 aaaay

#730
r1 aaaaz

#740
r1 aaaba

#750
r1 aaabb

#760
r1 aaabc

#770
r1 aaabd

#780
r1 aaabe

#790
r1 aaabf

#800
r123 aaaaa
r0 aaaaq

#810
r29 aaaab
r0 aaaar

#820
r34 aaaac
r0 aaaas

#830
r34 aaaad
r0 aaaat

#840
r-23 aaaae
r0 aaaau

#850
r85 aaaaf
r0 aaaav

#860
r12 aaaag
r0 aaaaw

#870
r206 aaaah
r0 aaaax

#880
r45 aaaai
r0 aaaay

#890
r336 aaaaj
r0 aaaaz

#900
r0 aaaak
r0 aaaba

#910
r593 aaaal
r0 aaabb

#920
r67 aaaam
r0 aaabc

#930
r823 aaaan
r0 aaabd

#940
r134 aaaao
r0 aaabe

#950
r422 aaaap
r0 aaabf

#970
r-768 aaaar

#980
r1449.984008789062 aaaas

#990
r-443.5433044433594 aaaat

#1000
r768 aaaau

#1010
r672 aaaav

#1020
r297.9839782714844 aaaaw

#1030
r916.7207641601562 aaaax

#1050
r768 aaaaz

#1060
r-297.9839782714844 aaaba

#1070
r659.5432739257812 aaabb

#1080
r-768 aaabc

#1090
r672 aaabd

#1100
r-1449.984008789062 aaabe

#1110
r1171.279174804688 aaabf

#1120
r422 aaaaa

#1130
r422 aaaab
r0 aaaar

#1140
r0 aaaac
r0 aaaas

#1150
r0 aaaad
r0 aaaat

#1160
r0 aaaae
r0 aaaau

#1170
r0 aaaaf
r0 aaaav

#1180
r0 aaaag
r0 aaaaw

#1190
r0 aaaah
r0 aaaax

#1200
r0 aaaai

#1210
r0 aaaaj
r0 aaaaz

#1220
r0 aaaba

#1230
r0 aaaal
r0 aaabb

#1240
r0 aaaam
r0 aaabc

#1250
r0 aaaan
r0 aaabd

#1260
r0 aaaao
r0 aaabe

#1270
r0 aaaap
r0 aaabf

#1280
r392 aaaaq

#1290
r2528 aaaar

#1300
r-1097.699096679688 aaaas

#1310
r-397.3122253417969 aaaat

#1320
r123 aaaau

#1330
r-431 aaaav

#1340
r157.68359375 aaaaw

#1350
r-92.23697662353516 aaaax

#1360
r32 aaaay

#1370
r18 aaaaz

#1380
r-222.3009033203125 aaaba

#1390
r-36.68777084350586 aaabb

#1400
r125 aaabc

#1410
r-655 aaabd

#1420
r1474.31640625 aaabe

#1430
r-701.7630004882812 aaabf

#1440
r0 aaaaq

#1450
r0 aaaar

#1460
r0 aaaas

#1470
r0 aaaat

#1480
r0 aaaau

#1490
r0 aaaav

#1500
r0 aaaaw

#1510
r0 aaaax

#1520
r0 aaaay

#1530
r0 aaaaz

#1540
r0 aaaba

#1550
r0 aaabb

#1560
r0 aaabc

#1570
r0 aaabd

#1580
r0 aaabe

#1590
r0 aaabf

